11 Prilagodba podatkovnih skupova uz paket dplyr | Programirajmo u R-u
…
# ispišite prosječno vrijeme kašnjenja u dolasku
# kod odlaznih letova u zrakoplovne luke 
# LAX, JFK i LGA u različitim danima u tjednu
# novi stupac nazovite 'MeanArrDelay'
# ignorirajte retke sa NA vrijednostima vremena kašnjenja
# ispis poredajte po vremenu kašnjenja silazno

filter(hflights, Dest %in% c('LAX', 'JFK', 'LGA')) %>% group_by(DayOfWeek, Dest) %>% 
summarise(MeanArrDelay = 
            round(mean(ArrDelay, na.rm = T) , 2), .groups = 'drop') %>%
         ungroup() %>% arrange(desc(MeanArrDelay))

## # A tibble: 21 × 3
##    DayOfWeek Dest  MeanArrDelay
##        <int> <chr>        <dbl>
##  1         4 LGA          21.3 
##  2         4 JFK          17.2 
##  3         5 LGA          13.6 
##  4         1 LGA          13.5 
##  5         7 JFK          10.8 
##  6         1 LAX          10.7 
##  7         3 LGA          10.5 
##  8         4 LAX          10.3 
##  9         2 LGA           9.85
## 10         6 JFK           9.76
## # … with 11 more rows

# za svaku zrakoplovnu tvrtku ispišite 
# kojih pet letova je imalo najveće vrijeme kašnjenja
# u dolasku mjesecu veljači
# ispis mora sadržavati datum leta (stupac tipa `Date`), oznaku zrakoplovne tvrtke,
# oznaku leta i vrijeme kašnjenja u dolasku

hflights %>% filter(Month == 2) %>% group_by(UniqueCarrier) %>% 
  slice_max(ArrDelay, n = 5) %>% unite(Date, Year, Month, DayofMonth) %>% 
  transmute(Date = ymd(Date), UniqueCarrier, FlightNum, ArrDelay)

## # A tibble: 72 × 4
## # Groups:   UniqueCarrier [15]
##    Date       UniqueCarrier FlightNum ArrDelay
##    <date>     <chr>             <int>    <int>
##  1 2011-02-04 AA                 1294      158
##  2 2011-02-17 AA                 1225      129
##  3 2011-02-02 AA                 1121      111
##  4 2011-02-04 AA                  533      100
##  5 2011-02-24 AA                 1298       92
##  6 2011-02-28 AS                  731      183
##  7 2011-02-17 AS                  731       33
##  8 2011-02-09 AS                  731       30
##  9 2011-02-22 AS                  731       22
## 10 2011-02-05 AS                  731       20
## # … with 62 more rows
…
